Unemployment Analysis by County
…
Continuous : civilian_labor, employed, unemployed, unemployment_rate

We will do this first by selecting the identifying information with the year in range (2007).

clean_unemp <- select(Unemployment, 1,2,3,7,8,9,10)

We have the first year in place, but it is only in the title of the continuous data sets we have. So we need to add a year.

clean_unemp$year = 2007

We need to change the data, because currently it looks like this :

print(clean_unemp)

## # A tibble: 3,275 x 8
##     FIPS State Area_name Civilian_labor_ Employed_2007 Unemployed_2007
##    <dbl> <chr> <chr>                <dbl>         <dbl>           <dbl>
##  1     0 US    United S        152191093     145156134         7034959
##  2  1000 AL    Alabama            2175612       2089127           86485
##  3  1001 AL    Autauga             24383         23577             806
##  4  1003 AL    Baldwin             82659         80099            2560
##  5  1005 AL    Barbour             10334          9684             650
##  6  1007 AL    Bibb Cou             8791          8432             359
##  7  1009 AL    Blount C            26629         25780             849
##  8  1011 AL    Bullock              3653          3308             345
##  9  1013 AL    Butler C             9099          8539             560
## 10  1015 AL    Calhoun             54861         52709            2152
## #  with 3,265 more rows, and 2 more variables:
## #   Unemployment_rate_2007 <dbl>, year <dbl>

We will be folding all the data under the current categorical (Civilian_labr_force_2007, Employed_2007, etc) and we cant have that year staying the same, and in fact lets clean up the rest of the names.

colnames(clean_unemp)[colnames(clean_unemp) == "State"] <- "state"
colnames(clean_unemp)[colnames(clean_unemp) == "Area_name"] <- "county"
colnames(clean_unemp)[colnames(clean_unemp) == "Civilian_labor_force_2007"] <- "civilian_labor"
colnames(clean_unemp)[colnames(clean_unemp) == "Employed_2007"] <- "employed"
colnames(clean_unemp)[colnames(clean_unemp) == "Unemployed_2007"] <- "unemployed"
colnames(clean_unemp)[colnames(clean_unemp) == "Unemployment_rate_2007"] <- "unemployment_rate"

With this done, now the dataframe clean_unemp looks like this :

print(clean_unemp)

## # A tibble: 3,275 x 8
##     FIPS state county civilian_labor employed unemployed unemployment_ra
##    <dbl> <chr> <chr>           <dbl>    <dbl>      <dbl>            <dbl>
##  1     0 US    Unite      152191093   1.45e8    7034959              4.6
##  2  1000 AL    Alaba        2175612   2.09e6      86485              4  
##  3  1001 AL    Autau          24383   2.36e4        806              3.3
##  4  1003 AL    Baldw          82659   8.01e4       2560              3.1
##  5  1005 AL    Barbo          10334   9.68e3        650              6.3
##  6  1007 AL    Bibb            8791   8.43e3        359              4.1
##  7  1009 AL    Bloun          26629   2.58e4        849              3.2
##  8  1011 AL    Bullo           3653   3.31e3        345              9.4
##  9  1013 AL    Butle           9099   8.54e3        560              6.2
## 10  1015 AL    Calho          54861   5.27e4       2152              3.9
## #  with 3,265 more rows, and 1 more variable: year <dbl>
…
With this script run, we have created a more searchable dataframe. Where previously there had been 3,275 rows, now we have

print(clean_unemp)

## # A tibble: 36,025 x 8
##     FIPS state county civilian_labor employed unemployed unemployment_ra
##    <dbl> <chr> <chr>           <dbl>    <dbl>      <dbl>            <dbl>
##  1     0 US    Unite      152191093   1.45e8    7034959              4.6
##  2  1000 AL    Alaba        2175612   2.09e6      86485              4  
##  3  1001 AL    Autau          24383   2.36e4        806              3.3
##  4  1003 AL    Baldw          82659   8.01e4       2560              3.1
##  5  1005 AL    Barbo          10334   9.68e3        650              6.3
##  6  1007 AL    Bibb            8791   8.43e3        359              4.1
##  7  1009 AL    Bloun          26629   2.58e4        849              3.2
##  8  1011 AL    Bullo           3653   3.31e3        345              9.4
##  9  1013 AL    Butle           9099   8.54e3        560              6.2
## 10  1015 AL    Calho          54861   5.27e4       2152              3.9
## #  with 36,015 more rows, and 1 more variable: year <dbl>
…
